{
	"info": {
		"_postman_id": "cd94cd3f-ac57-4205-b54a-6c5e111e3c54",
		"name": "transaction-settlement",
		"schema": "https://schema.getpostman.com/json/collection/v2.1.0/collection.json"
	},
	"item": [
		{
			"name": "Read Transaction",
			"event": [
				{
					"listen": "test",
					"script": {
						"exec": [
							""
						],
						"type": "text/javascript"
					}
				}
			],
			"request": {
				"method": "GET",
				"header": [],
				"url": {
					"raw": "http://127.0.0.1:8080/transactions/{{transactionId}}",
					"protocol": "http",
					"host": [
						"127",
						"0",
						"0",
						"1"
					],
					"port": "8080",
					"path": [
						"transactions",
						"{{transactionId}}"
					]
				}
			},
			"response": []
		},
		{
			"name": "Create Transaction",
			"event": [
				{
					"listen": "test",
					"script": {
						"exec": [
							"var jsonData = pm.response.json();\r",
							"\r",
							"pm.collectionVariables.set(\"transactionId\", jsonData.transaction_uuid);\r",
							"pm.test(\"Status code is 202\", function () {\r",
							"    pm.response.to.have.status(202);\r",
							"pm.test(\"usd value is set\", function () {\r",
							"    var jsonData = pm.response.json();\r",
							"    pm.expect(jsonData.usd).to.eql(5);\r",
							"});\r",
							"});\r",
							""
						],
						"type": "text/javascript"
					}
				}
			],
			"request": {
				"method": "POST",
				"header": [],
				"body": {
					"mode": "raw",
					"raw": "{\r\n    \"amount\": 5,\r\n    \"customer_uuid\": \"testabc1\",\r\n    \"wallet\": \"3C3nZhpVjjDGo7vGzBCTJkKfYzCGWGLWsq\"\r\n}",
					"options": {
						"raw": {
							"language": "json"
						}
					}
				},
				"url": {
					"raw": "http://127.0.0.1:8080/transactions",
					"protocol": "http",
					"host": [
						"127",
						"0",
						"0",
						"1"
					],
					"port": "8080",
					"path": [
						"transactions"
					]
				}
			},
			"response": []
		}
	],
	"event": [
		{
			"listen": "prerequest",
			"script": {
				"type": "text/javascript",
				"exec": [
					""
				]
			}
		},
		{
			"listen": "test",
			"script": {
				"type": "text/javascript",
				"exec": [
					""
				]
			}
		}
	],
	"variable": [
		{
			"key": "transactionId",
			"value": ""
		}
	]
}